\relax 
\providecommand\hyper@newdestlabel[2]{}
\providecommand\HyperFirstAtBeginDocument{\AtBeginDocument}
\HyperFirstAtBeginDocument{\ifx\hyper@anchor\@undefined
\global\let\oldcontentsline\contentsline
\gdef\contentsline#1#2#3#4{\oldcontentsline{#1}{#2}{#3}}
\global\let\oldnewlabel\newlabel
\gdef\newlabel#1#2{\newlabelxx{#1}#2}
\gdef\newlabelxx#1#2#3#4#5#6{\oldnewlabel{#1}{{#2}{#3}}}
\AtEndDocument{\ifx\hyper@anchor\@undefined
\let\contentsline\oldcontentsline
\let\newlabel\oldnewlabel
\fi}
\fi}
\global\let\hyper@last\relax 
\gdef\HyperFirstAtBeginDocument#1{#1}
\providecommand\HyField@AuxAddToFields[1]{}
\providecommand\HyField@AuxAddToCoFields[2]{}
\@writefile{toc}{\enlargethispage {\baselineskip }}
\select@language{american}
\@writefile{toc}{\select@language{american}}
\@writefile{lof}{\select@language{american}}
\@writefile{lot}{\select@language{american}}
\citation{heidenreich2011eau}
\citation{heidenreich2011eau}
\citation{narayan1995neuroanatomy}
\@writefile{toc}{\contentsline {section}{\numberline {I}Acknowledgments}{3}{section.0.1}}
\@writefile{toc}{\contentsline {section}{\numberline {II}Introduction}{3}{section.0.2}}
\citation{hricak2007imaging}
\citation{hricak2007imaging}
\@writefile{toc}{\contentsline {section}{\numberline {III}Data}{4}{section.0.3}}
\@writefile{lof}{\contentsline {figure}{\numberline {1}{\ignorespaces "Whole prostate histopathological image. Encircled parts confirm malign cancer tissue."\relax }}{5}{figure.0.1}}
\@writefile{lof}{\contentsline {figure}{\numberline {2}{\ignorespaces "Prostate division. The red part corresponds to the transition zone. The gray parts are in the peripheral part. Left and right divisions are also displayed."\relax }}{5}{figure.0.2}}
\@writefile{toc}{\contentsline {subsection}{\numberline {1}Feature Extracted Data}{5}{subsection.0.3.1}}
\citation{carlson1998algorithm}
\citation{ewing2013model}
\citation{hara1998pet}
\@writefile{lof}{\contentsline {figure}{\numberline {3}{\ignorespaces "Pelvic MRI T2 sequence."\relax }}{6}{figure.0.3}}
\@writefile{lof}{\contentsline {figure}{\numberline {4}{\ignorespaces "Pelvic ADC image."\relax }}{6}{figure.0.4}}
\@writefile{lof}{\contentsline {figure}{\numberline {5}{\ignorespaces "Pelvic PET-scan image."\relax }}{6}{figure.0.5}}
\citation{krizhevsky2012imagenet}
\@writefile{toc}{\contentsline {subsection}{\numberline {2}Raw imaging Data}{7}{subsection.0.3.2}}
\@writefile{lof}{\contentsline {figure}{\numberline {6}{\ignorespaces "Endorectal coil T2 MRI DICOM image."\relax }}{7}{figure.0.6}}
\@writefile{lof}{\contentsline {figure}{\numberline {7}{\ignorespaces "Prostate's right and left apex zone."\relax }}{7}{figure.0.7}}
\@writefile{lof}{\contentsline {figure}{\numberline {8}{\ignorespaces "Prostate's right and left medial zone."\relax }}{7}{figure.0.8}}
\citation{krizhevsky2012imagenet}
\citation{howard2013some}
\citation{kohavi1995study}
\@writefile{lof}{\contentsline {figure}{\numberline {9}{\ignorespaces "Prostate's right and left basal zone."\relax }}{8}{figure.0.9}}
\@writefile{lof}{\contentsline {figure}{\numberline {10}{\ignorespaces "Prostate'sright and left transition zone."\relax }}{8}{figure.0.10}}
\@writefile{toc}{\contentsline {section}{\numberline {IV}Mining}{8}{section.0.4}}
\@writefile{toc}{\contentsline {subsection}{\numberline {1}Data Mining}{8}{subsection.0.4.1}}
\@writefile{lot}{\contentsline {table}{\numberline {1}{\ignorespaces Attributes list\relax }}{9}{table.0.1}}
\@writefile{toc}{\contentsline {subsubsection}{Results}{9}{table.0.1}}
\@writefile{lof}{\contentsline {figure}{\numberline {11}{\ignorespaces "ROC curve for the whole data set using linear regressions."\relax }}{9}{figure.0.11}}
\@writefile{lof}{\contentsline {figure}{\numberline {12}{\ignorespaces "ROC curve per attribute using linear regressions."\relax }}{9}{figure.0.12}}
\@writefile{lot}{\contentsline {table}{\numberline {2}{\ignorespaces Attribute-AUC table.\relax }}{10}{table.0.2}}
\newlabel{tab:title}{{2}{10}{Attribute-AUC table.\relax }{table.0.2}{}}
\@writefile{lof}{\contentsline {figure}{\numberline {13}{\ignorespaces "Student test p-values based on ROC curves."\relax }}{10}{figure.0.13}}
\@writefile{toc}{\contentsline {subsubsection}{Discussion}{10}{figure.0.13}}
\citation{murphy2012machine}
\@writefile{toc}{\contentsline {subsection}{\numberline {2}Model Mining}{11}{subsection.0.4.2}}
\@writefile{lof}{\contentsline {figure}{\numberline {14}{\ignorespaces "Inner and outer cross-validation."\relax }}{11}{figure.0.14}}
\@writefile{lot}{\contentsline {table}{\numberline {3}{\ignorespaces Attributes list\relax }}{12}{table.0.3}}
\@writefile{toc}{\contentsline {subsubsection}{Results}{12}{table.0.3}}
\@writefile{lot}{\contentsline {table}{\numberline {4}{\ignorespaces Error rate and percentage : predictions - classes\relax }}{13}{table.0.4}}
\newlabel{tab:title}{{4}{13}{Error rate and percentage : predictions - classes\relax }{table.0.4}{}}
\@writefile{lof}{\contentsline {figure}{\numberline {15}{\ignorespaces "Models' Correctness bar plot."\relax }}{13}{figure.0.15}}
\@writefile{lot}{\contentsline {table}{\numberline {5}{\ignorespaces Dummy - Linear regression 2x2 contingency table and Mcnemar's p-value\relax }}{13}{table.0.5}}
\@writefile{lot}{\contentsline {table}{\numberline {6}{\ignorespaces Dummy - Decision Tree 2x2 contingency table and Mcnemar's p-value\relax }}{13}{table.0.6}}
\@writefile{lot}{\contentsline {table}{\numberline {7}{\ignorespaces Dummy - Naive Bayes 2x2 contingency table and Mcnemar's p-value\relax }}{14}{table.0.7}}
\@writefile{lot}{\contentsline {table}{\numberline {8}{\ignorespaces Dummy - Neural network 2x2 contingency table and Mcnemar's p-value\relax }}{14}{table.0.8}}
\@writefile{lot}{\contentsline {table}{\numberline {9}{\ignorespaces Dummy - Support vector machine 2x2 contingency table and Mcnemar's p-value\relax }}{14}{table.0.9}}
\@writefile{lof}{\contentsline {figure}{\numberline {16}{\ignorespaces "Inner and outer cross-validation."\relax }}{14}{figure.0.16}}
\citation{krizhevsky2012imagenet}
\citation{bouvrie2006notes}
\citation{bouvrie2006notes}
\citation{chu2014application}
\citation{krizhevsky2012imagenet}
\citation{krizhevsky2012imagenet}
\citation{krizhevsky2012imagenet}
\citation{bouvrie2006notes}
\citation{deepLearningToolbox}
\citation{convNet}
\citation{krizhevsky2012imagenet}
\@writefile{toc}{\contentsline {subsubsection}{Discussion}{15}{figure.0.16}}
\@writefile{toc}{\contentsline {subsection}{\numberline {3}Convolutional Networks}{15}{subsection.0.4.3}}
\@writefile{lof}{\contentsline {figure}{\numberline {17}{\ignorespaces "Convolutional net based on \citep  {krizhevsky2012imagenet}."\relax }}{15}{figure.0.17}}
\citation{dickinson2011magnetic}
\bibstyle{dcu}
\bibdata{/Users/pierrestarkov/bachelor/latexBachelor/bibliography.bib}
\@writefile{toc}{\contentsline {subsubsection}{Results}{16}{figure.0.17}}
\@writefile{toc}{\contentsline {subsubsection}{Discussion}{16}{figure.0.17}}
\@writefile{toc}{\contentsline {section}{\numberline {V}Conclusion}{16}{section.0.5}}
\bibcite{bouvrie2006notes}{{1}{2006}{{Bouvrie}}{{}}}
\bibcite{carlson1998algorithm}{{2}{1998}{{Carlson et~al.}}{{Carlson, Calvanese and\ Partin}}}
\bibcite{chu2014application}{{3}{2014}{{Chu and\ Krzy{\.z}ak}}{{}}}
\bibcite{convNet}{{4}{2014}{{Demyanov}}{{}}}
\bibcite{dickinson2011magnetic}{{5}{2011}{{Dickinson et~al.}}{{Dickinson, Ahmed, Allen, Barentsz, Carey, Futterer, Heijmink, Hoskin, Kirkham, Padhani et~al.}}}
\bibcite{ewing2013model}{{6}{2013}{{Ewing and\ Bagher-Ebadian}}{{}}}
\bibcite{hara1998pet}{{7}{1998}{{Hara et~al.}}{{Hara, Kosaka and\ Kishi}}}
\bibcite{heidenreich2011eau}{{8}{2011}{{Heidenreich et~al.}}{{Heidenreich, Bellmunt, Bolla, Joniau, Mason, Matveev, Mottet, Schmid, van~der Kwast, Wiegel et~al.}}}
\bibcite{howard2013some}{{9}{2013}{{Howard}}{{}}}
\bibcite{hricak2007imaging}{{10}{2007}{{Hricak et~al.}}{{Hricak, Choyke, Eberhardt, Leibel and\ Scardino}}}
\bibcite{kohavi1995study}{{11}{1995}{{Kohavi et~al.}}{{}}}
\bibcite{krizhevsky2012imagenet}{{12}{2012}{{Krizhevsky et~al.}}{{Krizhevsky, Sutskever and\ Hinton}}}
\bibcite{murphy2012machine}{{13}{2012}{{Murphy}}{{}}}
\bibcite{narayan1995neuroanatomy}{{14}{1995}{{Narayan et~al.}}{{Narayan, Konety, Aslam, Aboseif, Blumenfeld and\ Tanagho}}}
\bibcite{deepLearningToolbox}{{15}{2012}{{Palm}}{{}}}
