\relax 
\providecommand\hyper@newdestlabel[2]{}
\providecommand\HyperFirstAtBeginDocument{\AtBeginDocument}
\HyperFirstAtBeginDocument{\ifx\hyper@anchor\@undefined
\global\let\oldcontentsline\contentsline
\gdef\contentsline#1#2#3#4{\oldcontentsline{#1}{#2}{#3}}
\global\let\oldnewlabel\newlabel
\gdef\newlabel#1#2{\newlabelxx{#1}#2}
\gdef\newlabelxx#1#2#3#4#5#6{\oldnewlabel{#1}{{#2}{#3}}}
\AtEndDocument{\ifx\hyper@anchor\@undefined
\let\contentsline\oldcontentsline
\let\newlabel\oldnewlabel
\fi}
\fi}
\global\let\hyper@last\relax 
\gdef\HyperFirstAtBeginDocument#1{#1}
\providecommand\HyField@AuxAddToFields[1]{}
\providecommand\HyField@AuxAddToCoFields[2]{}
\@writefile{toc}{\enlargethispage {\baselineskip }}
\select@language{american}
\@writefile{toc}{\select@language{american}}
\@writefile{lof}{\select@language{american}}
\@writefile{lot}{\select@language{american}}
\citation{hricak2007imaging}
\@writefile{toc}{\contentsline {section}{\numberline {I}Introduction}{2}{section.0.1}}
\@writefile{toc}{\contentsline {subsubsection}{Problem statement : Medical}{2}{section.0.1}}
\@writefile{toc}{\contentsline {subsubsection}{Problem statement : Data}{2}{section.0.1}}
\@writefile{toc}{\contentsline {subsubsection}{Problem statement : Prediction}{2}{section.0.1}}
\@writefile{toc}{\contentsline {section}{\numberline {II}Logistic Regression}{3}{section.0.2}}
\@writefile{toc}{\contentsline {subsubsection}{Logistic Regression's theory}{3}{section.0.2}}
\@writefile{toc}{\contentsline {subsubsection}{Logistic Regression's application}{3}{section.0.2}}
\@writefile{toc}{\contentsline {paragraph}{Results - Table}{3}{section.0.2}}
\@writefile{toc}{\contentsline {paragraph}{Results - Plot}{3}{section.0.2}}
\@writefile{toc}{\contentsline {subparagraph}{Results : Plot - Leave-one-Instance-out}{3}{section.0.2}}
\@writefile{lof}{\contentsline {figure}{\numberline {1}{\ignorespaces ROC logistic regression$MRI_{GROUP}$ leave-one-instance-out\relax }}{3}{figure.0.1}}
\@writefile{lof}{\contentsline {figure}{\numberline {2}{\ignorespaces ROC logistic regression$PETMRI_{GROUP}$ leave-one-instance-out\relax }}{3}{figure.0.2}}
\@writefile{lof}{\contentsline {figure}{\numberline {3}{\ignorespaces ROC logistic regression$TOTAL_{GROUP}$ leave-one-instance-out\relax }}{4}{figure.0.3}}
\@writefile{lof}{\contentsline {figure}{\numberline {4}{\ignorespaces ROC logistic regression$OPTIMAL_{GROUP}$ leave-one-instance-out\relax }}{4}{figure.0.4}}
\@writefile{toc}{\contentsline {subparagraph}{Results : Plot - Leave-one-patient-out}{4}{figure.0.4}}
\@writefile{lof}{\contentsline {figure}{\numberline {5}{\ignorespaces ROC logistic regression$MRI_{GROUP}$ leave-one-patient-out\relax }}{4}{figure.0.5}}
\@writefile{lof}{\contentsline {figure}{\numberline {6}{\ignorespaces ROC logistic regression$PETMRI_{GROUP}$ leave-one-patient-out\relax }}{4}{figure.0.6}}
\@writefile{lof}{\contentsline {figure}{\numberline {7}{\ignorespaces ROC logistic regression$TOTAL_{GROUP}$ leave-one-patient-out\relax }}{4}{figure.0.7}}
\@writefile{lof}{\contentsline {figure}{\numberline {8}{\ignorespaces ROC logistic regression$OPTIMAL_{GROUP}$ leave-one-patient-out\relax }}{4}{figure.0.8}}
\@writefile{toc}{\contentsline {section}{\numberline {III}Conclusion}{4}{section.0.3}}
\bibstyle{authordate}
\bibdata{/Users/pierrestarkov/MATLAB/Bachelor/Latex/travail/bibliography}
\bibcite{hricak2007imaging}{{1}{2007}{{Hricak et~al.}}{{}}}
