Warning: No display specified.  You will not be able to display graphics on the screen.
Warning: No window system found.  Java option 'MWT' ignored

                            < M A T L A B (R) >
                  Copyright 1984-2012 The MathWorks, Inc.
                    R2012a (7.14.0.739) 64-bit (glnxa64)
                              February 9, 2012

 
To get started, type one of these: helpwin, helpdesk, or demo.
For product information, visit www.mathworks.com.
 
>> Start : ./../../dataICV/Logistic/-2binomial/innerCVdata.mEnd :End : ./../../dataICV/Logistic/loglognormal/innerCVdata.mat
>> data.mat
>> .mat
>> .mat
>> 